{
    "title": "新しいボード",
    "lists": [
        {
            "leftAt": 18240000,
            "startAt": 14520000,
            "id": "list-001",
            "title": "カードが無い、空のリスト",
            "postits": []
        },
        {
            "leftAt": 18120000,
            "startAt": 50280000,
            "id": "list-002",
            "title": "タイトルが異常に長いリスト。タイトルが異常に長いリスト。タイトルが異常に長いリスト。タイトルが異常に長いリスト。タイトルが異常に長いリスト。タイトルが異常に長いリスト。タイトルが異常に長いリスト。タイトルが異常に長いリスト。タイトルが異常に長いリスト。タイトルが異常に長いリスト。タイトルが異常に長いリスト。タイトルが異常に長いリスト。タイトルが異常に長いリスト。タイトルが異常に長いリスト。タイトルが異常に長いリスト。タイトルが異常に長いリスト。タイトルが異常に長いリスト。タイトルが異常に長いリスト。タイトルが異常に長いリスト。タイトルが異常に長いリスト。タイトルが異常に長いリスト。タイトルが異常に長いリスト。タイトルが異常に長いリスト。タイトルが異常に長いリスト。タイトルが異常に長いリスト。タイトルが異常に長いリスト。",
            "postits": []
        },
        {
            "id": "list-003",
            "title": "若干数のカードが入っているリスト",
            "postits": [
                {
                    "id": "postit-003-001",
                    "title": "カード01",
                    "content": "コンテント"
                },
                {
                    "id": "postit-003-002",
                    "title": "カード02",
                    "content": "新しいコンテンツ"
                }
            ]
        },
        {
            "id": "list-004",
            "title": "異常にカードが多いリスト",
            "postits": [
                {
                    "id": "postit-004-001",
                    "title": "タイトル001",
                    "content": "コンテンツ001"
                },
                {
                    "id": "postit-004-002",
                    "title": "タイトル002",
                    "content": "コンテンツ002"
                },
                {
                    "id": "postit-004-003",
                    "title": "タイトル003",
                    "content": "コンテンツ003"
                },
                {
                    "id": "postit-004-004",
                    "title": "タイトル004",
                    "content": "コンテンツ004"
                },
                {
                    "id": "postit-004-005",
                    "title": "タイトル005",
                    "content": "コンテンツ005"
                },
                {
                    "id": "postit-004-006",
                    "title": "タイトル006",
                    "content": "コンテンツ006"
                },
                {
                    "id": "postit-004-007",
                    "title": "タイトル007",
                    "content": "コンテンツ007"
                },
                {
                    "id": "postit-004-008",
                    "title": "タイトル008",
                    "content": "コンテンツ008"
                },
                {
                    "id": "postit-004-009",
                    "title": "タイトル009",
                    "content": "コンテンツ009"
                },
                {
                    "id": "postit-004-010",
                    "title": "タイトル010",
                    "content": "コンテンツ010"
                },
                {
                    "id": "postit-004-011",
                    "title": "タイトル011",
                    "content": "コンテンツ011"
                },
                {
                    "id": "postit-004-012",
                    "title": "タイトル012",
                    "content": "コンテンツ012"
                },
                {
                    "id": "postit-004-013",
                    "title": "タイトル013",
                    "content": "コンテンツ013"
                },
                {
                    "id": "postit-004-014",
                    "title": "タイトル014",
                    "content": "コンテンツ014"
                },
                {
                    "id": "postit-004-015",
                    "title": "タイトル015",
                    "content": "コンテンツ015"
                },
                {
                    "id": "postit-004-016",
                    "title": "タイトル016",
                    "content": "コンテンツ016"
                },
                {
                    "id": "postit-004-017",
                    "title": "タイトル017",
                    "content": "コンテンツ017"
                },
                {
                    "id": "postit-004-018",
                    "title": "タイトル018",
                    "content": "コンテンツ018"
                },
                {
                    "id": "postit-004-019",
                    "title": "タイトル019",
                    "content": "コンテンツ019"
                },
                {
                    "id": "postit-004-020",
                    "title": "タイトル020",
                    "content": "コンテンツ020"
                },
                {
                    "id": "postit-004-021",
                    "title": "タイトル021",
                    "content": "コンテンツ021"
                },
                {
                    "id": "postit-004-022",
                    "title": "タイトル022",
                    "content": "コンテンツ022"
                },
                {
                    "id": "postit-004-023",
                    "title": "タイトル023",
                    "content": "コンテンツ023"
                },
                {
                    "id": "postit-004-024",
                    "title": "タイトル024",
                    "content": "コンテンツ024"
                },
                {
                    "id": "postit-004-025",
                    "title": "タイトル025",
                    "content": "コンテンツ025"
                },
                {
                    "id": "postit-004-026",
                    "title": "タイトル026",
                    "content": "コンテンツ026"
                },
                {
                    "id": "postit-004-027",
                    "title": "タイトル027",
                    "content": "コンテンツ027"
                },
                {
                    "id": "postit-004-028",
                    "title": "タイトル028",
                    "content": "コンテンツ028"
                },
                {
                    "id": "postit-004-029",
                    "title": "タイトル029",
                    "content": "コンテンツ029"
                },
                {
                    "id": "postit-004-030",
                    "title": "タイトル030",
                    "content": "コンテンツ030"
                }
            ]
        },
        {
            "id": "list-005",
            "title": "異様に長いタイトルのカードを含むリスト",
            "postits": [
                {
                    "id": "postit-005-001",
                    "title": "カード01",
                    "content": "コンテント"
                },
                {
                    "id": "postit-005-002",
                    "title": "異様に長いカードのタイトル。異様に長いカードのタイトル。異様に長いカードのタイトル。異様に長いカードのタイトル。異様に長いカードのタイトル。異様に長いカードのタイトル。異様に長いカードのタイトル。異様に長いカードのタイトル。異様に長いカードのタイトル。異様に長いカードのタイトル。異様に長いカードのタイトル。異様に長いカードのタイトル。異様に長いカードのタイトル。異様に長いカードのタイトル。異様に長いカードのタイトル。異様に長いカードのタイトル。異様に長いカードのタイトル。異様に長いカードのタイトル。異様に長いカードのタイトル。異様に長いカードのタイトル。異様に長いカードのタイトル。異様に長いカードのタイトル。異様に長いカードのタイトル。異様に長いカードのタイトル。異様に長いカードのタイトル。異様に長いカードのタイトル。異様に長いカードのタイトル。異様に長いカードのタイトル。異様に長いカードのタイトル。異様に長いカードのタイトル。異様に長いカードのタイトル。異様に長いカードのタイトル。異様に長いカードのタイトル。異様に長いカードのタイトル。異様に長いカードのタイトル。異様に長いカードのタイトル。異様に長いカードのタイトル。異様に長いカードのタイトル。異様に長いカードのタイトル。異様に長いカードのタイトル。異様に長いカードのタイトル。異様に長いカードのタイトル。異様に長いカードのタイトル。異様に長いカードのタイトル。異様に長いカードのタイトル。異様に長いカードのタイトル。異様に長いカードのタイトル。異様に長いカードのタイトル。異様に長いカードのタイトル。異様に長いカードのタイトル。異様に長いカードのタイトル。異様に長いカードのタイトル。異様に長いカードのタイトル。異様に長いカードのタイトル。異様に長いカードのタイトル。異様に長いカードのタイトル。異様に長いカードのタイトル。異様に長いカードのタイトル。異様に長いカードのタイトル。異様に長いカードのタイトル。異様に長いカードのタイトル。異様に長いカードのタイトル。異様に長いカードのタイトル。",
                    "content": "新しいコンテンツ"
                }
            ]
        },
        {
            "id": "list-006",
            "title": "異様に長いコンテントを持つカードを含むリスト",
            "postits": [
                {
                    "id": "postit-006-001",
                    "title": "カード01",
                    "content": "異様に長いコンテント。異様に長いコンテント。異様に長いコンテント。異様に長いコンテント。異様に長いコンテント。異様に長いコンテント。異様に長いコンテント。異様に長いコンテント。異様に長いコンテント。異様に長いコンテント。異様に長いコンテント。異様に長いコンテント。異様に長いコンテント。異様に長いコンテント。異様に長いコンテント。異様に長いコンテント。異様に長いコンテント。異様に長いコンテント。異様に長いコンテント。異様に長いコンテント。異様に長いコンテント。異様に長いコンテント。異様に長いコンテント。異様に長いコンテント。異様に長いコンテント。異様に長いコンテント。異様に長いコンテント。異様に長いコンテント。異様に長いコンテント。異様に長いコンテント。異様に長いコンテント。異様に長いコンテント。異様に長いコンテント。異様に長いコンテント。異様に長いコンテント。異様に長いコンテント。異様に長いコンテント。異様に長いコンテント。異様に長いコンテント。異様に長いコンテント。異様に長いコンテント。異様に長いコンテント。異様に長いコンテント。異様に長いコンテント。異様に長いコンテント。異様に長いコンテント。異様に長いコンテント。異様に長いコンテント。異様に長いコンテント。異様に長いコンテント。異様に長いコンテント。異様に長いコンテント。異様に長いコンテント。異様に長いコンテント。異様に長いコンテント。異様に長いコンテント。異様に長いコンテント。異様に長いコンテント。異様に長いコンテント。異様に長いコンテント。異様に長いコンテント。異様に長いコンテント。異様に長いコンテント。異様に長いコンテント。異様に長いコンテント。異様に長いコンテント。異様に長いコンテント。異様に長いコンテント。異様に長いコンテント。異様に長いコンテント。異様に長いコンテント。異様に長いコンテント。異様に長いコンテント。異様に長いコンテント。異様に長いコンテント。異様に長いコンテント。異様に長いコンテント。異様に長いコンテント。異様に長いコンテント。異様に長いコンテント。異様に長いコンテント。異様に長いコンテント。異様に長いコンテント。異様に長いコンテント。異様に長いコンテント。異様に長いコンテント。異様に長いコンテント。異様に長いコンテント。異様に長いコンテント。異様に長いコンテント。異様に長いコンテント。異様に長いコンテント。異様に長いコンテント。異様に長いコンテント。異様に長いコンテント。異様に長いコンテント。異様に長いコンテント。異様に長いコンテント。異様に長いコンテント。異様に長いコンテント。異様に長いコンテント。異様に長いコンテント。異様に長いコンテント。異様に長いコンテント。異様に長いコンテント。異様に長いコンテント。異様に長いコンテント。異様に長いコンテント。異様に長いコンテント。"
                },
                {
                    "id": "postit-006-002",
                    "title": "カード02",
                    "content": "新しいコンテンツ"
                }
            ]
        },
        {
            "id": "list-007",
            "title": "複数の異様に長いタイトルなどを含むリスト",
            "postits": [
                {
                    "id": "postit-007-001",
                    "title": "異様に長いカードのタイトル。異様に長いカードのタイトル。異様に長いカードのタイトル。異様に長いカードのタイトル。異様に長いカードのタイトル。異様に長いカードのタイトル。異様に長いカードのタイトル。異様に長いカードのタイトル。異様に長いカードのタイトル。異様に長いカードのタイトル。異様に長いカードのタイトル。異様に長いカードのタイトル。異様に長いカードのタイトル。異様に長いカードのタイトル。異様に長いカードのタイトル。異様に長いカードのタイトル。異様に長いカードのタイトル。異様に長いカードのタイトル。異様に長いカードのタイトル。異様に長いカードのタイトル。異様に長いカードのタイトル。異様に長いカードのタイトル。異様に長いカードのタイトル。異様に長いカードのタイトル。異様に長いカードのタイトル。異様に長いカードのタイトル。異様に長いカードのタイトル。異様に長いカードのタイトル。異様に長いカードのタイトル。異様に長いカードのタイトル。異様に長いカードのタイトル。異様に長いカードのタイトル。異様に長いカードのタイトル。異様に長いカードのタイトル。異様に長いカードのタイトル。異様に長いカードのタイトル。異様に長いカードのタイトル。異様に長いカードのタイトル。異様に長いカードのタイトル。異様に長いカードのタイトル。異様に長いカードのタイトル。異様に長いカードのタイトル。異様に長いカードのタイトル。異様に長いカードのタイトル。異様に長いカードのタイトル。異様に長いカードのタイトル。異様に長いカードのタイトル。異様に長いカードのタイトル。異様に長いカードのタイトル。異様に長いカードのタイトル。異様に長いカードのタイトル。異様に長いカードのタイトル。異様に長いカードのタイトル。異様に長いカードのタイトル。異様に長いカードのタイトル。異様に長いカードのタイトル。異様に長いカードのタイトル。異様に長いカードのタイトル。異様に長いカードのタイトル。異様に長いカードのタイトル。異様に長いカードのタイトル。異様に長いカードのタイトル。異様に長いカードのタイトル。",
                    "content": "異様に長いコンテント。異様に長いコンテント。異様に長いコンテント。異様に長いコンテント。異様に長いコンテント。異様に長いコンテント。異様に長いコンテント。異様に長いコンテント。異様に長いコンテント。異様に長いコンテント。異様に長いコンテント。異様に長いコンテント。異様に長いコンテント。異様に長いコンテント。異様に長いコンテント。異様に長いコンテント。異様に長いコンテント。異様に長いコンテント。異様に長いコンテント。異様に長いコンテント。異様に長いコンテント。異様に長いコンテント。異様に長いコンテント。異様に長いコンテント。異様に長いコンテント。異様に長いコンテント。異様に長いコンテント。異様に長いコンテント。異様に長いコンテント。異様に長いコンテント。異様に長いコンテント。異様に長いコンテント。異様に長いコンテント。異様に長いコンテント。異様に長いコンテント。異様に長いコンテント。異様に長いコンテント。異様に長いコンテント。異様に長いコンテント。異様に長いコンテント。異様に長いコンテント。異様に長いコンテント。異様に長いコンテント。異様に長いコンテント。異様に長いコンテント。異様に長いコンテント。異様に長いコンテント。異様に長いコンテント。異様に長いコンテント。異様に長いコンテント。異様に長いコンテント。異様に長いコンテント。異様に長いコンテント。異様に長いコンテント。異様に長いコンテント。異様に長いコンテント。異様に長いコンテント。異様に長いコンテント。異様に長いコンテント。異様に長いコンテント。異様に長いコンテント。異様に長いコンテント。異様に長いコンテント。異様に長いコンテント。異様に長いコンテント。異様に長いコンテント。異様に長いコンテント。異様に長いコンテント。異様に長いコンテント。異様に長いコンテント。異様に長いコンテント。異様に長いコンテント。異様に長いコンテント。異様に長いコンテント。異様に長いコンテント。異様に長いコンテント。異様に長いコンテント。異様に長いコンテント。異様に長いコンテント。異様に長いコンテント。異様に長いコンテント。異様に長いコンテント。異様に長いコンテント。異様に長いコンテント。異様に長いコンテント。異様に長いコンテント。異様に長いコンテント。異様に長いコンテント。異様に長いコンテント。異様に長いコンテント。異様に長いコンテント。異様に長いコンテント。異様に長いコンテント。異様に長いコンテント。異様に長いコンテント。異様に長いコンテント。異様に長いコンテント。異様に長いコンテント。異様に長いコンテント。異様に長いコンテント。異様に長いコンテント。異様に長いコンテント。異様に長いコンテント。異様に長いコンテント。異様に長いコンテント。異様に長いコンテント。異様に長いコンテント。異様に長いコンテント。異様に長いコンテント。"
                },
                {
                    "id": "postit-007-002",
                    "title": "異様に長いカードのタイトル。異様に長いカードのタイトル。異様に長いカードのタイトル。異様に長いカードのタイトル。異様に長いカードのタイトル。異様に長いカードのタイトル。異様に長いカードのタイトル。異様に長いカードのタイトル。異様に長いカードのタイトル。異様に長いカードのタイトル。異様に長いカードのタイトル。異様に長いカードのタイトル。異様に長いカードのタイトル。異様に長いカードのタイトル。異様に長いカードのタイトル。異様に長いカードのタイトル。異様に長いカードのタイトル。異様に長いカードのタイトル。異様に長いカードのタイトル。異様に長いカードのタイトル。異様に長いカードのタイトル。異様に長いカードのタイトル。異様に長いカードのタイトル。異様に長いカードのタイトル。異様に長いカードのタイトル。異様に長いカードのタイトル。異様に長いカードのタイトル。異様に長いカードのタイトル。異様に長いカードのタイトル。異様に長いカードのタイトル。異様に長いカードのタイトル。異様に長いカードのタイトル。異様に長いカードのタイトル。異様に長いカードのタイトル。異様に長いカードのタイトル。異様に長いカードのタイトル。異様に長いカードのタイトル。異様に長いカードのタイトル。異様に長いカードのタイトル。異様に長いカードのタイトル。異様に長いカードのタイトル。異様に長いカードのタイトル。異様に長いカードのタイトル。異様に長いカードのタイトル。異様に長いカードのタイトル。異様に長いカードのタイトル。異様に長いカードのタイトル。異様に長いカードのタイトル。異様に長いカードのタイトル。異様に長いカードのタイトル。異様に長いカードのタイトル。異様に長いカードのタイトル。異様に長いカードのタイトル。異様に長いカードのタイトル。異様に長いカードのタイトル。異様に長いカードのタイトル。異様に長いカードのタイトル。異様に長いカードのタイトル。異様に長いカードのタイトル。異様に長いカードのタイトル。異様に長いカードのタイトル。異様に長いカードのタイトル。異様に長いカードのタイトル。",
                    "content": "異様に長いコンテント。異様に長いコンテント。異様に長いコンテント。異様に長いコンテント。異様に長いコンテント。異様に長いコンテント。異様に長いコンテント。異様に長いコンテント。異様に長いコンテント。異様に長いコンテント。異様に長いコンテント。異様に長いコンテント。異様に長いコンテント。異様に長いコンテント。異様に長いコンテント。異様に長いコンテント。異様に長いコンテント。異様に長いコンテント。異様に長いコンテント。異様に長いコンテント。異様に長いコンテント。異様に長いコンテント。異様に長いコンテント。異様に長いコンテント。異様に長いコンテント。異様に長いコンテント。異様に長いコンテント。異様に長いコンテント。異様に長いコンテント。異様に長いコンテント。異様に長いコンテント。異様に長いコンテント。異様に長いコンテント。異様に長いコンテント。異様に長いコンテント。異様に長いコンテント。異様に長いコンテント。異様に長いコンテント。異様に長いコンテント。異様に長いコンテント。異様に長いコンテント。異様に長いコンテント。異様に長いコンテント。異様に長いコンテント。異様に長いコンテント。異様に長いコンテント。異様に長いコンテント。異様に長いコンテント。異様に長いコンテント。異様に長いコンテント。異様に長いコンテント。異様に長いコンテント。異様に長いコンテント。異様に長いコンテント。異様に長いコンテント。異様に長いコンテント。異様に長いコンテント。異様に長いコンテント。異様に長いコンテント。異様に長いコンテント。異様に長いコンテント。異様に長いコンテント。異様に長いコンテント。異様に長いコンテント。異様に長いコンテント。異様に長いコンテント。異様に長いコンテント。異様に長いコンテント。異様に長いコンテント。異様に長いコンテント。異様に長いコンテント。異様に長いコンテント。異様に長いコンテント。異様に長いコンテント。異様に長いコンテント。異様に長いコンテント。異様に長いコンテント。異様に長いコンテント。異様に長いコンテント。異様に長いコンテント。異様に長いコンテント。異様に長いコンテント。異様に長いコンテント。異様に長いコンテント。異様に長いコンテント。異様に長いコンテント。異様に長いコンテント。異様に長いコンテント。異様に長いコンテント。異様に長いコンテント。異様に長いコンテント。異様に長いコンテント。異様に長いコンテント。異様に長いコンテント。異様に長いコンテント。異様に長いコンテント。異様に長いコンテント。異様に長いコンテント。異様に長いコンテント。異様に長いコンテント。異様に長いコンテント。異様に長いコンテント。異様に長いコンテント。異様に長いコンテント。異様に長いコンテント。異様に長いコンテント。異様に長いコンテント。異様に長いコンテント。異様に長いコンテント。"
                }
            ]
        }
    ],
    "dock": {
        "id": "the-dock",
        "title": "未配置のカードを格納する要素です",
        "postits": [
            {
                "id": "dock-postit-1",
                "title": "未配置カード1",
                "content": "未配置のカードの内容"
            },
            {
                "id": "dock-postit-2",
                "title": "未配置カード1",
                "content": "未配置のカードの内容"
            }
        ]
    }
}
